[
  {
    "candyId": 1,
    "name": "Candy Nut",
    "energy": 100,
    "production": "Ukraine",
    "type": {
      "typeName": "iris",
      "filled": false
    },
    "ingredients": [
      {
        "ingredientName": "vanilla"
      },
      {
        "ingredientName": "fructose"
      },
      {
        "ingredientName": "sugar"
      }
    ],
    "value": {
      "protein": 0.05,
      "fat": 0.1,
      "carbohydrate": 2.0
    }
  },
  {
    "candyId": 2,
    "name": "Candy Cow",
    "energy": 120,
    "production": "Ukraine",
    "type": {
      "typeName": "caramel",
      "filled": true
    },
    "ingredients": [
      {
        "ingredientName": "vanilla"
      },
      {
        "ingredientName": "fructose"
      },
      {
        "ingredientName": "water"
      }
    ],
    "value": {
      "protein": 0.05,
      "fat": 0.1,
      "carbohydrate": 2.0
    }
  },
  {
    "candyId": 3,
    "name": "Snickers",
    "energy": 110,
    "production": "USA",
    "type": {
      "typeName": "chocolate",
      "filled": true
    },
    "ingredients": [
      {
        "ingredientName": "vanilla"
      },
      {
        "ingredientName": "fructose"
      },
      {
        "ingredientName": "water"
      },
      {
        "ingredientName": "sugar"
      },
      {
        "ingredientName": "milkChocolate"
      }
    ],
    "value": {
      "protein": 2,
      "fat": 6,
      "carbohydrate": 12.0
    }
  }
]