{
  "definitions": {},
  "$schema": "http://json-schema.org/draft-07/schema#",
  "$id": "http://example.com/root.json",
  "type": "array",
  "title": "The Root Schema",
  "items": {
    "$id": "#/items",
    "type": "object",
    "title": "The Items Schema",
    "required": [
      "candyId",
      "name",
      "energy",
      "production",
      "type",
      "ingredients",
      "value"
    ],
    "properties": {
      "candyId": {
        "$id": "#/items/properties/candyId",
        "type": "integer",
        "title": "The Candyid Schema",
        "default": 0,
        "examples": [
          1
        ],
        "minimum": 0.0
      },
      "name": {
        "$id": "#/items/properties/name",
        "type": "string",
        "title": "The Name Schema",
        "default": "",
        "examples": [
          "Candy Nut"
        ],
        "pattern": "^(.*)$"
      },
      "energy": {
        "$id": "#/items/properties/energy",
        "type": "integer",
        "title": "The Energy Schema",
        "default": 0,
        "examples": [
          100
        ],
        "minimum": 0.0,
        "maximum": 1000.0
      },
      "production": {
        "$id": "#/items/properties/production",
        "type": "string",
        "title": "The Production Schema",
        "default": "",
        "examples": [
          "Ukraine"
        ],
        "pattern": "^(.*)$"
      },
      "type": {
        "$id": "#/items/properties/type",
        "type": "object",
        "title": "The Type Schema",
        "required": [
          "typeName",
          "filled"
        ],
        "properties": {
          "typeName": {
            "$id": "#/items/properties/type/properties/typeName",
            "type": "string",
            "title": "The Typename Schema",
            "default": "",
            "examples": [
              "iris"
            ],
            "pattern": "^(.*)$"
          },
          "filled": {
            "$id": "#/items/properties/type/properties/filled",
            "type": "boolean",
            "title": "The Filled Schema",
            "default": false,
            "examples": [
              false
            ]
          }
        }
      },
      "ingredients": {
        "$id": "#/items/properties/ingredients",
        "type": "array",
        "title": "The Ingredients Schema",
        "items": {
          "$id": "#/items/properties/ingredients/items",
          "type": "object",
          "title": "The Items Schema",
          "required": [
            "ingredientName"
          ],
          "properties": {
            "ingredientName": {
              "$id": "#/items/properties/ingredients/items/properties/ingredientName",
              "type": "string",
              "title": "The Ingredientname Schema",
              "default": "",
              "examples": [
                "vanilla"
              ],
              "pattern": "^(.*)$"
            }
          }
        }
      },
      "value": {
        "$id": "#/items/properties/value",
        "type": "object",
        "title": "The Value Schema",
        "required": [
          "protein",
          "fat",
          "carbohydrate"
        ],
        "properties": {
          "protein": {
            "$id": "#/items/properties/value/properties/protein",
            "type": "number",
            "title": "The Protein Schema",
            "default": 0.0,
            "examples": [
              0.05
            ],
            "minimum": 0.0,
            "maximum": 100.0
          },
          "fat": {
            "$id": "#/items/properties/value/properties/fat",
            "type": "number",
            "title": "The Fat Schema",
            "default": 0.0,
            "examples": [
              0.1
            ],
            "minimum": 0.0,
            "maximum": 100.0
          },
          "carbohydrate": {
            "$id": "#/items/properties/value/properties/carbohydrate",
            "type": "number",
            "title": "The Carbohydrate Schema",
            "default": 0,
            "examples": [
              2
            ],
            "minimum": 0.0,
            "maximum": 100.0
          }
        }
      }
    }
  }
}